:100000000C9461000C9473000C9473000C947300B6
:100010000C9473000C9473000C9473000C94730094
:100020000C9473000C9473000C9473000C94730084
:100030000C9473000C9473000C9473000C94730074
:100040000C9458010C9473000C9473000C9473007E
:100050000C9473000C9473000C9473000C94730054
:100060000C9473000C94730000000000240027001F
:100070002A0000000000250028002B0000000000DE
:1000800023002600290004040404040404040202DA
:100090000202020203030303030301020408102007
:1000A0004080010204081020010204081020000012
:1000B0000008000201000003040700000000000027
:1000C000000011241FBECFEFD8E0DEBFCDBF21E07E
:1000D000A0E0B1E001C01D92A930B207E1F70E9493
:1000E000A2010C9432020C940000833081F028F4B9
:1000F000813099F08230A9F008958730A9F08830D6
:10010000C9F08430B1F4809180008F7D03C080916C
:1001100080008F7780938000089584B58F7784BDA9
:10012000089584B58F7DFBCF8091B0008F77809349
:10013000B00008958091B0008F7DF9CF1F93CF93C9
:10014000DF93282F30E0F901E255FF4F8491F90148
:10015000E656FF4FD491F901EA57FF4FC491CC23E3
:10016000A9F0162F81110E947500EC2FF0E0EE0F20
:10017000FF1FEE58FF4FA591B4918FB7F894EC9103
:10018000111108C0D095DE23DC938FBFDF91CF9192
:100190001F910895DE2BF8CFCF93DF9390E0FC0101
:1001A000E656FF4F24918A579F4FFC018491882384
:1001B000D1F090E0880F991FFC01E859FF4FA591FD
:1001C000B491FC01EE58FF4FC591D491623071F4A7
:1001D0009FB7F8943C91822F809583238C93E8817C
:1001E0002E2B28839FBFDF91CF9108958FB7F8946E
:1001F000EC912E2B2C938FBFF6CF3FB7F8948091C4
:10020000050190910601A0910701B091080126B562
:10021000A89B05C02F3F19F00196A11DB11D3FBF3E
:10022000BA2FA92F982F8827BC01CD01620F711D0D
:10023000811D911D42E0660F771F881F991F4A9507
:10024000D1F708958F929F92AF92BF92CF92DF9293
:10025000EF92FF920E94FD004B015C0184EFC82EDB
:10026000DD24D394E12CF12C0E94FD00681979095A
:100270008A099B09683E734081059105A8F321E036
:10028000C21AD108E108F10888EE880E83E0981EB2
:10029000A11CB11CC114D104E104F10429F7FF90A1
:1002A000EF90DF90CF90BF90AF909F908F90089588
:1002B0001F920F920FB60F9211242F933F938F939B
:1002C0009F93AF93BF938091010190910201A09100
:1002D0000301B09104013091000123E0230F2D3779
:1002E00058F50196A11DB11D2093000180930101D5
:1002F00090930201A0930301B09304018091050142
:1003000090910601A0910701B09108010196A11DED
:10031000B11D8093050190930601A0930701B0934E
:100320000801BF91AF919F918F913F912F910F90B5
:100330000FBE0F901F90189526E8230F0296A11D5F
:10034000B11DD2CF789484B5826084BD84B58160BC
:1003500084BD85B5826085BD85B5816085BD809190
:100360006E00816080936E00109281008091810008
:100370008260809381008091810081608093810000
:10038000809180008160809380008091B1008460C2
:100390008093B1008091B00081608093B000809123
:1003A0007A00846080937A0080917A0082608093E2
:1003B0007A0080917A00816080937A0080917A003F
:1003C000806880937A001092C10061E084E00E940E
:1003D000CC0061E083E00E94CC0062E082E00E94F9
:1003E000CC00C0EBD0E00CE910E098E8E92E90E0FA
:1003F000F92E20E0C22E20E0D22E61E084E00E949F
:100400009E000E94220160E084E00E949E000E9403
:100410002201FE018491F801A490F701B49070E0EC
:1004200060E0BB2099F081110E947500EB2DF0E097
:10043000EE0FFF1FE458FF4FA591B4918C91A822B5
:1004400091E080E009F490E0692F782FF1E06F27C8
:1004500083E00E949E00C114D10409F4CECF0E9413
:080460000000CBCFF894FFCFA0
:00000001FF
